…
The most featured known artist is Emma Gillies. From this website
(<https://www.ed.ac.uk/news/2014/emma-gillies-031214>), I learned that
her family was renown in the art field in 20th century and very closely
related to the U of Edinburgh. Emma was a ceramic student there, and her
brother William was a teacher for 40 years as well as the Principal for
6 tears.

``` r
uoe_art_new %>%
  count(artist) %>%
  arrange(desc(n))
```

    ## # A tibble: 1,116 x 2
    ##    artist               n
    ##    <chr>            <int>
    ##  1 Unknown            357
    ##  2 Emma Gillies       148
    ##  3 <NA>               115
    ##  4 John Bellany        22
    ##  5 Ann F Ward          19
    ##  6 Boris Bucan         17
    ##  7 Marjorie Wallace    17
    ##  8 Zygmunt Bukowski    17
    ##  9 Gordon Bryce        16
    ## 10 William Gillon      16
    ## # ... with 1,106 more rows
…
